[
     { "name": "Kevin Harvick", "y": 24.73151062},
     { "name": "Jeff Gordon", "y": 20.93332547},
     { "name": "Brian Scott", "y": 15.84726313},
     { "name": "Jimmie Johnson", "y": 13.78099735},
     { "name": "Brad Keselowski", "y": 12.27362487},
     { "name": "Kyle Larson", "y": 10.10157867},
     { "name": "Michael Annett", "y": 7.844223104},
     { "name": "Joey Logano", "y": 7.206591119},
     { "name": "Brett Moffitt", "y": 6.633233515},
     { "name": "Danica Patrick", "y": 5.949102551},
     { "name": "Matt Kenseth", "y": 4.988043412},
     { "name": "Trevor Bayne", "y": 3.899874702},
     { "name": "Tony Stewart", "y": 3.818553475},
     { "name": "AJ Allmendinger", "y": 3.478866889},
     { "name": "Kasey Kahne", "y": 2.451450539},
     { "name": "Michael McDowell", "y": 2.282070527},
     { "name": "Cole Whitt", "y": 2.212158381},
     { "name": "Alex Bowman", "y": 1.945220047},
     { "name": "JJ Yeley", "y": 1.021631052},
     { "name": "Kyle Busch", "y": 0.582536959},
     { "name": "Josh Wise", "y": 0.046170434},
     { "name": "Reed Sorenson", "y": -0.170835799},
     { "name": "Jamie McMurray", "y": -0.457485857},
     { "name": "Landon Cassill", "y": -0.803720855},
     { "name": "Ryan Newman", "y": -1.419919311},
     { "name": "Blake Koch", "y": -1.798277636},
     { "name": "David Gilliland", "y": -2.624541173},
     { "name": "Denny Hamlin", "y": -2.647246892},
     { "name": "David Ragan", "y": -3.082278525},
     { "name": "Austin Dillon", "y": -4.347586361},
     { "name": "Carl Edwards", "y": -4.914195126},
     { "name": "Kurt Busch", "y": -7.101250289},
     { "name": "Dale Earnhardt Jr.", "y": -7.311780107},
     { "name": "Paul Menard", "y": -7.933876727},
     { "name": "Martin Truex Jr.", "y": -8.033140752},
     { "name": "Greg Biffle", "y": -8.118379683},
     { "name": "Ricky Stenhouse Jr.", "y": -9.104294421},
     { "name": "Aric Almirola", "y": -9.63515721},
     { "name": "Casey Mears", "y": -11.01895963},
     { "name": "Brian Vickers", "y": -12.9113119},
     { "name": "Justin Allgaier", "y": -14.91305775},
     { "name": "Marcos Ambrose", "y": -16.42168916},
     { "name": "Clint Bowyer", "y": -17.25904164}
]