[
	{"name": "Tony Stewart", "init": "TS", "x": 22, "y": 39.01605545, "voc": 3.706055447, "color": "#00ff00"},
	{"name": "Trevor Bayne", "init": "TB", "x": 11.5, "y": 19.51463469, "voc": 3.839634687, "color": "#00ff00"},
	{"name": "Ricky Stenhouse Jr.", "init": "RS", "x": 20, "y": 22.36316146, "voc": -9.206838542, "color": "#ff0000"},
	{"name": "Reed Sorenson", "init": "RS", "x": 8.25, "y": 9.382599286, "voc": -0.214900714, "color": "#ff0000"},
	{"name": "Ryan Newman", "init": "RN", "x": 25.75, "y": 40.77141909, "voc": -1.551080915, "color": "#ff0000"},
	{"name": "Paul Menard", "init": "PM", "x": 22.25, "y": 27.72988101, "voc": -8.047618993, "color": "#ff0000"},
	{"name": "Martin Truex Jr.", "init": "MT", "x": 21.25, "y": 25.76559394, "voc": -8.141906065, "color": "#ff0000"},
	{"name": "Michael McDowell", "init": "MM", "x": 6.75, "y": 9.037971043, "voc": 2.245471043, "color": "#00ff00"},
	{"name": "Matt Kenseth", "init": "MK", "x": 27.75, "y": 50.9094279, "voc": 4.8469279, "color": "#00ff00"},
	{"name": "Michael Annett", "init": "MA", "x": 9.5, "y": 19.728937, "voc": 7.793936996, "color": "#00ff00"},
	{"name": "Marcos Ambrose", "init": "MA", "x": 21.5, "y": 17.84330128, "voc": -16.53169872, "color": "#ff0000"},
	{"name": "Landon Cassill", "init": "LC", "x": 8.25, "y": 8.74971423, "voc": -0.84778577, "color": "#ff0000"},
	{"name": "Kyle Larson", "init": "KL", "x": 23, "y": 47.16410368, "voc": 9.984103683, "color": "#00ff00"},
	{"name": "Kasey Kahne", "init": "KK", "x": 23.75, "y": 40.91274284, "voc": 2.330242841, "color": "#00ff00"},
	{"name": "Kevin Harvick", "init": "KH", "x": 28, "y": 71.11915087, "voc": 24.58915087, "color": "#00ff00"},
	{"name": "Kyle Busch", "init": "KB", "x": 25.75, "y": 42.77387536, "voc": 0.451375355, "color": "#00ff00"},
	{"name": "Kurt Busch", "init": "KB", "x": 24, "y": 31.82629778, "voc": -7.223702225, "color": "#ff0000"},
	{"name": "JJ Yeley", "init": "JY", "x": 6.25, "y": 6.845020044, "voc": 0.987520044, "color": "#00ff00"},
	{"name": "Josh Wise", "init": "JW", "x": 6.75, "y": 6.802070949, "voc": 0.009570949, "color": "#00ff00"},
	{"name": "Jamie McMurray", "init": "JM", "x": 23.75, "y": 38.00380645, "voc": -0.578693555, "color": "#ff0000"},
	{"name": "Joey Logano", "init": "JL", "x": 27.5, "y": 52.66171985, "voc": 7.066719846, "color": "#00ff00"},
	{"name": "Jimmie Johnson", "init": "JJ", "x": 26.75, "y": 57.83735879, "voc": 13.64485879, "color": "#00ff00"},
	{"name": "Jeff Gordon", "init": "JG", "x": 28, "y": 67.32096572, "voc": 20.79096572, "color": "#00ff00"},
	{"name": "Justin Allgaier", "init": "JA", "x": 15, "y": 7.229282899, "voc": -14.9907171, "color": "#ff0000"},
	{"name": "Greg Biffle", "init": "GB", "x": 23.25, "y": 29.4104011, "voc": -8.237098903, "color": "#ff0000"},
	{"name": "David Ragan", "init": "DR", "x": 10.5, "y": 10.66745841, "voc": -3.137541586, "color": "#ff0000"},
	{"name": "Danica Patrick", "init": "DP", "x": 15.75, "y": 29.49021048, "voc": 5.867710483, "color": "#00ff00"},
	{"name": "Denny Hamlin", "init": "DH", "x": 24.25, "y": 36.74655693, "voc": -2.770943067, "color": "#ff0000"},
	{"name": "David Gilliland", "init": "DG", "x": 12.75, "y": 15.32149762, "voc": -2.691002379, "color": "#ff0000"},
	{"name": "Dale Earnhardt Jr.", "init": "DE", "x": 27, "y": 37.2108371, "voc": -7.449162904, "color": "#ff0000"},
	{"name": "Cole Whitt", "init": "CW", "x": 11, "y": 16.89440684, "voc": 2.154406843, "color": "#00ff00"},
	{"name": "Casey Mears", "init": "CM", "x": 18.75, "y": 18.11721745, "voc": -11.11528256, "color": "#ff0000"},
	{"name": "Carl Edwards", "init": "CE", "x": 25.5, "y": 36.81088751, "voc": -5.044112493, "color": "#ff0000"},
	{"name": "Clint Bowyer", "init": "CB", "x": 25.75, "y": 24.93229676, "voc": -17.39020324, "color": "#ff0000"},
	{"name": "Brian Vickers", "init": "BV", "x": 21.75, "y": 21.81993431, "voc": -13.02256569, "color": "#ff0000"},
	{"name": "Brian Scott", "init": "BS", "x": 7.25, "y": 23.53567517, "voc": 15.80817517, "color": "#00ff00"},
	{"name": "Brett Moffitt", "init": "BM", "x": 6, "y": 11.99036675, "voc": 6.600366746, "color": "#00ff00"},
	{"name": "Brad Keselowski", "init": "BK", "x": 27.5, "y": 57.7287536, "voc": 12.1337536, "color": "#00ff00"},
	{"name": "Blake Koch", "init": "BK", "x": 5.25, "y": 2.16008831, "voc": -1.82741169, "color": "#ff0000"},
	{"name": "Austin Dillon", "init": "AD", "x": 21.25, "y": 29.45114833, "voc": -4.456351674, "color": "#ff0000"},
	{"name": "Alex Bowman", "init": "AB", "x": 8.25, "y": 11.49865513, "voc": 1.901155132, "color": "#00ff00"},
	{"name": "Aric Almirola", "init": "AA", "x": 20.5, "y": 22.76481019, "voc": -9.740189808, "color": "#ff0000"},
	{"name": "AJ Allmendinger", "init": "AA", "x": 18.25, "y": 31.68253244, "voc": 3.385032437, "color": "#00ff00"}
]