[
	{
		"id": 1,
		"name": "dkirk",
		"pass":"1234",
		"admin": true,
		"affiliate": true
	},{
		"id": 2,
		"name": "gcallsen",
		"pass":"1234",
		"admin": true,
		"affiliate": true
	},{
		"id": 3,
		"name": "amesa",
		"pass":"1234",
		"admin": true,
		"affiliate": true
	},{
		"id": 4,
		"name": "kjensen",
		"pass":"1234",
		"admin": true,
		"affiliate": true
	},{
		"id": 5,
		"name": "eallen",
		"pass":"1234",
		"admin": true,
		"affiliate": true
	},{
		"id": 6,
		"name": "amaness",
		"pass":"1234",
		"admin": true,
		"affiliate": true
	},{
		"id": 7,
		"name": "jmoxley",
		"pass":"1234",
		"admin": true,
		"affiliate": true
	}
]